1 10 20
100 200 125
201 210 89
900 1000 174
415447 921580 525
376576 884313 525
217405 683696 509
72573 267214 443
438696 366328 449
143338 776608 509
712064 732435 411
504195 586665 470
108759 126114 349
38020 989191 525
629716 514914 509
314229 427410 449
79696 577908 470
567356 310721 470
202082 398708 443
411031 966306 525
989441 289420 525
199467 135768 383
181400 132955 383
266779 954738 525
9625 620020 470
352697 13910 443
663612 554684 509
372386 559136 470
244610 952938 525
915419 235645 525
645392 957824 525
246491 479641 449
230036 963924 525
809569 34192 509
35811 582222 470
269725 175442 443
804912 260551 509
131420 630195 509
822248 380091 509
536233 937573 525
477219 348323 449
174057 494684 449
640926 264748 509
636748 274416 509
322575 226438 443
339590 572861 470
275990 494926 449
524850 450035 470
662525 48215 509
681055 778304 504
360290 855573 525
258690 967760 525
476612 809424 509
718231 859517 525
115426 147227 375
825580 656625 504
619524 672557 509
273957 47068 443
689502 419914 509
346603 530958 470
185588 448238 449
467105 969472 525
150762 199858 383
305783 605209 470
141074 536639 470
807390 153757 509
886207 39018 525
643516 158606 509
464270 491079 413
920465 490127 525
773663 151701 509
114574 21845 354
831895 550671 509
898350 900756 401
91372 607551 470
170742 877943 525
457240 288891 449
179069 711757 509
287644 857935 525
353007 274728 441
251300 699497 509
773137 772568 393
52860 384027 443
485865 503170 426
206937 955083 525
838005 962470 507
317846 374128 441
448211 269972 449
84538 54222 351
235844 406023 441
400239 992401 525
67386 305285 443
433103 110138 449
383645 127650 443
984654 458869 525
935586 400659 525
488114 47040 449
524984 118364 470
551549 964839 525
667902 364143 509
63971 502593 449
372673 729207 509
490077 634011 509
485173 861131 525
351103 798795 509
399853 9534 443
722304 335751 509
115393 583080 470
94146 114919 354
629099 304495 509
466190 941829 525
601385 701774 509
924686 493609 525
118716 397074 443
538506 72849 470
119698 156884 383
720728 697026 504
910688 852982 476
926031 172878 525
64040 164825 383
246626 859660 525
242092 639942 509
952193 652337 525
973026 128019 525
534091 39133 470
19423 885801 525
895871 777270 525
71128 847134 525
497506 802839 509
677384 470986 509
553904 384033 470
696459 941381 525
13726 862364 525
803191 430075 509
754707 174850 509
919461 134368 525
431000 546353 470
84826 397706 443
320255 874422 525
535645 208280 470
419033 597868 470
321221 778618 509
464293 121373 449
593090 736882 509
430112 705652 509
346880 316236 441
136078 164571 383
625588 958381 525
709053 221722 509
846026 707192 525
389659 411986 449
251872 163768 443
19489 910591 525
525063 358723 470
605464 865147 525
216969 225564 368
814139 307963 509
790330 606732 509
296665 828431 509
362261 764242 509
892421 70026 525
212497 414683 449
404489 418870 449
495094 40075 449
786377 830657 468
527576 319866 470
407794 1122 443
443096 67570 449
94886 689809 509
195146 466468 449
839790 726503 525
89708 237693 443
812972 986271 525
162684 725061 509
123798 884434 525
738057 394388 509
305991 686797 509
529333 271830 470
51297 839054 525
138429 806624 509
127878 534479 470
326390 324461 384
401662 340762 441
138845 854018 525
924782 113256 525
461096 117191 449
181330 309585 443
894905 767968 525
818849 965554 525
120276 675998 509
562699 471179 470
774239 198160 509
955393 630452 525
361156 114747 443
489993 565523 470
524330 592307 452
569759 437686 470
271650 980916 525
747556 680166 504
630985 419612 509
31850 768475 509
625748 4538 470
734181 764369 424
464623 612806 470
735696 630580 504
506762 987629 525
23102 926854 525
124315 205754 383
296243 419572 449
627309 926795 525
949269 516893 525
952143 960536 414
39474 799825 509
54683 349873 443
801999 773701 468
427130 352628 449
484875 638489 509
324966 513854 470
90237 670268 509
532161 922312 525
437973 458276 400
782457 752193 468
538407 55336 470
269917 645260 509
729179 2575 509
240693 242783 319
790149 972641 525
784317 365674 509
71098 591250 470
488310 607498 470
809290 147477 509
564489 206474 470
107063 182721 383
691464 283016 509
642166 802476 504
667558 820422 504
925707 257837 525
508027 699940 509
586394 746872 509
377495 62317 443
135155 82892 354
65563 983680 525
304182 453843 449
77477 872457 525
209477 546440 470
561804 314643 470
26827 552217 470
484436 266276 449
589951 373126 470
163380 60370 383
