9113 43231 324
24838 100334 351
36296 353205 443
185735 328421 443
231078 826861 509
836319 797616 450
291870 461794 449
213960 172566 373
187359 364956 443
837042 703158 504
245409 861936 525
554077 762887 509
36762 379768 443
907290 953648 507
291058 488878 449
971180 511290 525
653997 276769 509
932589 158580 525
593879 644981 509
535492 856318 525
786010 578690 509
275339 611813 470
55151 21582 340
832269 903478 525
471421 691967 509
834655 209447 509
703639 362547 509
348914 567803 470
582451 601494 434
82099 999341 525
304536 731846 509
1170 935165 525
562323 991999 525
947850 217182 525
357448 202963 443
587898 457199 470
594245 166601 470
287379 192248 443
255469 57318 443
118218 700989 509
39 32767 308
123265 537655 470
940077 209193 525
128183 159362 383
375197 915352 525
52624 657907 509
597238 741526 509
233822 376669 441
699652 638628 442
220374 933977 525
507805 707780 509
362379 577610 470
792370 968814 525
345535 149543 443
14192 851447 525
469457 859108 525
377861 896462 525
51194 135185 354
690951 508545 509
154011 627596 509
173619 716604 509
521453 334017 470
434957 790941 509
535998 202391 470
722902 418547 509
554213 463829 470
885871 128145 525
634433 279919 509
746135 990335 525
524473 362416 470
420575 329718 449
859823 737152 525
618746 939833 525
139264 245913 443
994621 24924 525
913592 442442 525
308465 989856 525
412043 116286 449
360378 600593 470
299202 18719 443
282592 541474 470
58463 552780 470
11933 7869 268
385202 183417 443
876327 997382 507
51262 43353 314
630304 662924 429
328665 337261 366
885013 613297 525
189742 279937 443
83684 890019 525
732596 131142 509
175332 968210 525
525216 620350 452
831148 332885 509
321469 926240 525
512302 389002 470
31740 529860 470
455634 252611 449
119782 792421 509
965131 991681 458
892056 626061 525
545150 355349 470
559376 701525 509
313297 441682 449
742526 743007 318
479691 945331 525
538118 866937 525
265998 508148 449
771557 220571 509
746719 131301 509
121640 846090 525
208612 646784 509
719814 474903 509
916298 884384 476
41045 244184 443
108461 147796 375
405095 629293 509
522154 194480 470
516340 801630 509
792299 863972 525
945711 290397 525
27092 585949 470
421753 371531 449
905369 147860 525
490750 432915 444
879851 154303 525
965654 781329 525
490628 671876 509
507733 458749 444
628808 283285 509
933644 75616 525
528248 465853 470
465722 424204 444
302304 194729 443
49870 229981 386
366360 292798 441
577560 965701 525
148572 621961 470
780308 120673 509
116588 76979 354
646453 931969 525
858323 974230 507
212381 640955 509
719591 892773 525
544842 479810 470
75489 390340 443
98017 233626 443
49307 408091 443
290596 467044 449
804818 191057 509
469903 419672 444
231500 757763 509
998303 537536 525
12451 602385 470
520183 826317 509
111948 808765 509
319175 236590 407
229578 452739 449
164612 907019 525
380450 631714 509
204848 846715 525
185826 785559 509
851887 564229 525
236712 975029 525
758680 628398 504
3743 423076 449
207696 138330 383
607043 120502 470
975263 121137 525
573360 898894 525
556803 23961 470
133415 224397 386
231202 4646 443
976828 342360 525
523638 82506 470
568928 125588 470
894221 966236 507
526169 616816 452
482110 484852 351
977376 729542 525
594089 635524 509
660821 221560 509
952041 573371 525
740682 21140 509
951615 236660 525
963936 404216 525
189665 792720 509
116082 397207 443
877927 57056 525
664371 270484 509
436234 474737 444
125341 165797 383
27519 905287 525
470569 809984 509
75603 846101 525
295577 548531 470
842298 193304 525
162164 764960 509
62455 144651 375
631836 915259 525
252652 197781 443
885277 750939 525
928037 516275 525
855931 536383 525
548864 47713 470
685135 440337 509
361855 924510 525
986660 532167 525
292656 963401 525